<?xml version="1.0" encoding="UTF-8" standalone="no"?>
<!-- Created with Inkscape (http://www.inkscape.org/) -->

<svg
   xmlns:dc="http://purl.org/dc/elements/1.1/"
   xmlns:cc="http://creativecommons.org/ns#"
   xmlns:rdf="http://www.w3.org/1999/02/22-rdf-syntax-ns#"
   xmlns:svg="http://www.w3.org/2000/svg"
   xmlns="http://www.w3.org/2000/svg"
   xmlns:sodipodi="http://sodipodi.sourceforge.net/DTD/sodipodi-0.dtd"
   xmlns:inkscape="http://www.inkscape.org/namespaces/inkscape"
   width="19.755901mm"
   height="16.20997mm"
   viewBox="0 0 19.755901 16.20997"
   version="1.1"
   id="svg8"
   inkscape:version="0.92.3 (2405546, 2018-03-11)"
   sodipodi:docname="logoblue.svg"
   inkscape:export-filename="/home/urgrace/Documents/rps/logoblue.png"
   inkscape:export-xdpi="115.71226"
   inkscape:export-ydpi="115.71226">
  <defs
     id="defs2" />
  <sodipodi:namedview
     id="base"
     pagecolor="#ffffff"
     bordercolor="#666666"
     borderopacity="1.0"
     inkscape:pageopacity="0.0"
     inkscape:pageshadow="2"
     inkscape:zoom="5.6"
     inkscape:cx="35.771141"
     inkscape:cy="17.368308"
     inkscape:document-units="mm"
     inkscape:current-layer="layer2"
     showgrid="false"
     inkscape:window-width="1366"
     inkscape:window-height="705"
     inkscape:window-x="0"
     inkscape:window-y="30"
     inkscape:window-maximized="1" />
  <metadata
     id="metadata5">
    <rdf:RDF>
      <cc:Work
         rdf:about="">
        <dc:format>image/svg+xml</dc:format>
        <dc:type
           rdf:resource="http://purl.org/dc/dcmitype/StillImage" />
        <dc:title />
      </cc:Work>
    </rdf:RDF>
  </metadata>
  <g
     inkscape:label="Layer 1"
     inkscape:groupmode="layer"
     id="layer1"
     style="display:inline"
     transform="translate(-16.520595,-5.6894118)">
    <flowRoot
       xml:space="preserve"
       id="flowRoot815"
       style="font-style:normal;font-variant:normal;font-weight:normal;font-stretch:normal;font-size:40px;line-height:5.25;font-family:'Bookman Old Style';-inkscape-font-specification:'Bookman Old Style';letter-spacing:0px;word-spacing:0px;fill:#000000;fill-opacity:1;stroke:none"
       transform="scale(0.26458333)"><flowRegion
         id="flowRegion817"
         style="font-style:normal;font-variant:normal;font-weight:normal;font-stretch:normal;line-height:5.25;font-family:'Bookman Old Style';-inkscape-font-specification:'Bookman Old Style'"><rect
           id="rect819"
           width="267.14285"
           height="148.57143"
           x="40"
           y="29.662542"
           style="font-style:normal;font-variant:normal;font-weight:normal;font-stretch:normal;line-height:5.25;font-family:'Bookman Old Style';-inkscape-font-specification:'Bookman Old Style'" /></flowRegion><flowPara
         id="flowPara821">RRbhbh</flowPara></flowRoot>  </g>
  <g
     inkscape:groupmode="layer"
     id="layer2"
     inkscape:label="Layer 2"
     style="display:inline"
     transform="translate(-16.520595,-5.6894118)">
    <path
       transform="matrix(1.0000072,0,0,0.99999281,0.82875348,1.3292177)"
       style="font-style:normal;font-variant:normal;font-weight:normal;font-stretch:normal;font-size:10.58325672px;line-height:1.25;font-family:'Bookman Old Style';-inkscape-font-specification:'Bookman Old Style';letter-spacing:0px;word-spacing:0px;fill:#666666;fill-opacity:1;stroke:none;stroke-width:0.26458141"
       d="m 32.705078,12.695312 c -0.50357,0 -0.990431,0.100402 -1.453125,0.300782 -0.458769,0.198679 -0.829195,0.451385 -1.105469,0.761718 -0.269117,0.302758 -0.446411,0.642274 -0.519531,1.011719 -0.0955,0.46988 -0.01257,0.916758 0.25,1.289063 0.274954,0.38986 0.775424,0.669507 1.480469,0.886718 a 0.2098382,0.2098382 0 0 0 0.002,0 l 1.216797,0.371094 c 0.535443,0.167327 0.877353,0.353584 1.013672,0.5 0.140682,0.151104 0.186305,0.318429 0.130859,0.583985 a 0.2098382,0.2098382 0 0 0 -0.002,0.0039 c -0.05378,0.280226 -0.222622,0.526353 -0.552734,0.755859 -0.399847,0.278293 -0.818098,0.414063 -1.271485,0.414063 -0.331952,0 -0.63881,-0.07754 -0.929687,-0.230469 h -0.002 c -0.287853,-0.155066 -0.533093,-0.382287 -0.740235,-0.691406 -0.204325,-0.304917 -0.344529,-0.681087 -0.419922,-1.136719 a 0.2098382,0.2098382 0 0 0 -0.248046,-0.169922 l -0.501954,0.09766 a 0.2098382,0.2098382 0 0 0 -0.167968,0.201172 l -0.03711,2.587891 a 0.2098382,0.2098382 0 0 0 0.208985,0.21289 h 0.363281 a 0.2098382,0.2098382 0 0 0 0.183594,-0.107421 l 0.255859,-0.464844 c 0.258445,0.219991 0.517242,0.402387 0.779297,0.507812 a 0.2098382,0.2098382 0 0 0 0.002,0 c 0.329887,0.128921 0.710651,0.189453 1.140625,0.189453 0.833326,0 1.57307,-0.225816 2.195312,-0.679687 0.619789,-0.453062 1.009598,-1.003174 1.134766,-1.632813 0.05662,-0.283104 0.05788,-0.55559 -0.0059,-0.810546 -0.06263,-0.254444 -0.18004,-0.475959 -0.34961,-0.654297 -0.170519,-0.1827 -0.408808,-0.341362 -0.71289,-0.486328 h -0.002 C 33.751322,16.167089 33.52539,16.069704 33.351562,16.015625 L 32.080078,15.617188 C 31.683889,15.492959 31.411049,15.373992 31.28125,15.285156 l -0.002,-0.002 c -0.139674,-0.0995 -0.223975,-0.202478 -0.271485,-0.3125 -0.04545,-0.11299 -0.05539,-0.221129 -0.0293,-0.34375 a 0.2098382,0.2098382 0 0 0 0,-0.0039 c 0.02593,-0.13486 0.09874,-0.275081 0.234375,-0.425781 0.130081,-0.144536 0.309911,-0.267782 0.548828,-0.365235 0.239235,-0.09942 0.496005,-0.15039 0.773437,-0.15039 0.461406,0 0.830757,0.132759 1.144532,0.40039 a 0.2098382,0.2098382 0 0 0 0.0039,0.002 c 0.398892,0.329244 0.681423,0.777224 0.847656,1.367188 a 0.2098382,0.2098382 0 0 0 0.259766,0.144531 l 0.505859,-0.144531 a 0.2098382,0.2098382 0 0 0 0.150391,-0.210938 l -0.109375,-2.220703 a 0.2098382,0.2098382 0 0 0 -0.208985,-0.199219 h -0.371094 a 0.2098382,0.2098382 0 0 0 -0.177734,0.0957 l -0.203125,0.320312 c -0.152889,-0.118769 -0.301963,-0.244066 -0.484375,-0.318359 -0.364535,-0.14879 -0.763641,-0.222657 -1.1875,-0.222657 z"
       id="path29" />
    <path
       style="font-style:normal;font-variant:normal;font-weight:normal;font-stretch:normal;font-size:10.58325672px;line-height:1.25;font-family:'Bookman Old Style';-inkscape-font-specification:'Bookman Old Style';letter-spacing:0px;word-spacing:0px;fill:#666666;fill-opacity:1;stroke:none;stroke-width:0.26458141"
       d="m 25.380482,10.241439 a 0.20968439,0.20968137 0 0 0 -0.183595,0.167967 l -0.08789,0.43945 a 0.20968439,0.20968137 0 0 0 0.205079,0.249998 h 0.171876 c 0.237484,0 0.399264,0.0385 0.392581,0.03516 a 0.20968439,0.20968137 0 0 0 0.0098,0.0039 c 0.02878,0.01251 0.02253,0.0073 0.0293,0.0332 a 0.20968439,0.20968137 0 0 0 0,0.002 c -0.0028,-0.01022 0.0056,0.140785 -0.03711,0.357418 l -0.988288,4.931606 c -0.04578,0.22119 -0.105075,0.369246 -0.128908,0.404294 -0.03409,0.05114 -0.07304,0.0832 -0.13086,0.109374 -0.03687,0.01435 -0.187532,0.04102 -0.412112,0.04102 h -0.171876 a 0.20968439,0.20968137 0 0 0 -0.205081,0.167967 l -0.08789,0.433591 a 0.20968439,0.20968137 0 0 0 0.205079,0.249998 h 2.791036 a 0.20968439,0.20968137 0 0 0 0.20508,-0.167968 l 0.08789,-0.43359 a 0.20968439,0.20968137 0 0 0 -0.205079,-0.249998 h -0.248049 c -0.206108,0 -0.339967,-0.0416 -0.320314,-0.0293 -0.0081,-0.0053 -0.0208,-0.01426 -0.0332,-0.07422 a 0.20968439,0.20968137 0 0 0 -0.002,-0.0059 c 0.0041,0.01724 -0.0025,-0.03634 0.0059,-0.113282 0.0083,-0.07694 0.02594,-0.18437 0.05273,-0.318356 l 0.339847,-1.681629 h 1.146492 c 0.764986,0 1.348143,-0.07089 1.771498,-0.240232 a 0.20968439,0.20968137 0 0 0 0,-0.002 c 0.417131,-0.169106 0.794377,-0.452446 1.128914,-0.837885 0.288668,-0.330344 0.481213,-0.726551 0.570317,-1.175773 0.103526,-0.525027 0.04838,-0.992409 -0.189456,-1.363271 -0.22805,-0.355507 -0.564948,-0.611628 -0.984411,-0.755807 -0.365532,-0.131426 -0.954404,-0.177733 -1.828139,-0.177733 h -2.847676 a 0.20968439,0.20968137 0 0 0 -0.02148,0 z m 1.966812,0.982415 h 0.732427 c 0.591591,0 0.989748,0.03827 1.130867,0.08008 0.234087,0.07225 0.380819,0.194087 0.480473,0.390622 a 0.20968439,0.20968137 0 0 0 0.002,0 c 0.09666,0.187953 0.122809,0.436729 0.05664,0.767573 -0.06312,0.301698 -0.180345,0.556131 -0.355471,0.777338 -0.177965,0.221672 -0.37133,0.368255 -0.582036,0.453122 a 0.20968439,0.20968137 0 0 0 -0.002,0.002 c -0.192007,0.07842 -0.579443,0.132811 -1.128914,0.132812 h -0.855475 z"
       id="path27"
       inkscape:connector-curvature="0" />
    <path
       style="font-style:normal;font-variant:normal;font-weight:normal;font-stretch:normal;font-size:10.58325672px;line-height:1.25;font-family:'Bookman Old Style';-inkscape-font-specification:'Bookman Old Style';letter-spacing:0px;word-spacing:0px;fill:#666666;fill-opacity:1;stroke:none;stroke-width:0.26458141"
       d="m 18.636176,6.1190655 a 0.24244759,0.2424441 0 0 0 -0.238283,0.1953111 l -0.08789,0.43945 a 0.24244759,0.2424441 0 0 0 0.238283,0.2890603 h 0.292971 c 0.165591,0 0.267841,0.038405 0.244142,0.023438 a 0.24244759,0.2424441 0 0 0 0.0078,0.00391 c 0.005,0.0029 0.0096,8.009e-4 0.02148,0.044922 0.0021,0.00795 0.0072,0.143747 -0.03125,0.3359351 l -0.945319,4.722622 c -0.03204,0.151674 -0.05704,0.271847 -0.07617,0.355466 -0.01847,0.08073 -0.03651,0.138446 -0.03125,0.124999 -0.02781,0.06684 -0.05919,0.113878 -0.09375,0.148437 -0.03905,0.03553 -0.07588,0.058 -0.105469,0.06836 -0.0024,8.43e-4 -0.126293,0.02149 -0.302737,0.02149 h -0.248049 a 0.24244759,0.2424441 0 0 0 -0.238282,0.193358 l -0.08789,0.435544 a 0.24244759,0.2424441 0 0 0 0.238283,0.291013 h 2.765645 a 0.24244759,0.2424441 0 0 0 0.238282,-0.193358 l 0.08789,-0.435544 A 0.24244759,0.2424441 0 0 0 20.046328,12.892465 H 19.86078 c -0.228722,0 -0.373484,-0.05035 -0.349613,-0.03516 -0.006,-0.0038 -0.01408,-0.01643 -0.02148,-0.06445 0.0014,0.0086 0.01426,-0.158421 0.06055,-0.396481 l 0.406253,-2.025377 h 0.583988 l 1.888693,3.318326 a 0.24244759,0.2424441 0 0 0 0.21094,0.123045 h 1.64259 a 0.24244759,0.2424441 0 0 0 0.238282,-0.193357 l 0.08789,-0.435544 A 0.24244759,0.2424441 0 0 0 24.37059,12.892454 h -0.128907 c -0.137498,0 -0.245472,-0.02266 -0.332033,-0.06055 -0.08938,-0.04086 -0.171737,-0.100291 -0.251955,-0.185545 -7.01e-4,-7.44e-4 -0.0013,-0.0012 -0.002,-0.002 -0.01039,-0.0138 -0.09119,-0.132048 -0.203125,-0.316404 a 0.24244759,0.2424441 0 0 0 0,-0.002 l -1.23043,-1.990123 c 0.432213,-0.03614 0.829273,-0.106073 1.154305,-0.244139 0.418367,-0.1814129 0.771081,-0.4324622 1.04493,-0.7519476 a 0.24244759,0.2424441 0 0 0 0.002,-0.00195 c 0.273396,-0.3227546 0.453694,-0.696076 0.537113,-1.109367 a 0.24244759,0.2424441 0 0 0 0,-0.00195 c 0.08015,-0.4045528 0.042,-0.7869736 -0.125001,-1.1152264 l -0.002,-0.00195 C 24.669121,6.7780813 24.383251,6.5252444 24.011215,6.3632044 23.622028,6.1888835 23.080204,6.1190655 22.356906,6.1190655 Z m 1.960952,1.0468674 h 1.671887 c 0.393675,0 0.665561,0.056895 0.791021,0.1230461 a 0.24244759,0.2424441 0 0 0 0.0039,0.00195 c 0.141758,0.072167 0.227276,0.1655149 0.287111,0.3164041 a 0.24244759,0.2424441 0 0 0 0.002,0.00391 c 0.05825,0.1383534 0.0734,0.3313774 0.02148,0.5878864 -0.06131,0.3034605 -0.180726,0.5372663 -0.357423,0.7226511 -0.179985,0.1888332 -0.394483,0.3165 -0.662115,0.3886691 a 0.24244759,0.2424441 0 0 0 -0.0039,0.00195 c -0.168659,0.048188 -0.520266,0.08203 -1.013679,0.08203 h -1.185556 z"
       id="path25"
       inkscape:connector-curvature="0" />
    <path
       transform="scale(1.0000072,0.99999281)"
       style="font-style:normal;font-variant:normal;font-weight:normal;font-stretch:normal;font-size:10.58325672px;line-height:1.25;font-family:'Bookman Old Style';-inkscape-font-specification:'Bookman Old Style';letter-spacing:0px;word-spacing:0px;fill:#002255;fill-opacity:1;stroke:none;stroke-width:0.26458141"
       d="M 18.207031,5.6894531 A 0.24244584,0.24244584 0 0 0 17.96875,5.8847656 l -0.08789,0.4394532 a 0.24244584,0.24244584 0 0 0 0.238282,0.2890624 h 0.292968 c 0.16559,0 0.267839,0.038405 0.244141,0.023438 a 0.24244584,0.24244584 0 0 0 0.0078,0.00391 c 0.005,0.0029 0.0096,8.009e-4 0.02148,0.044922 0.0021,0.00795 0.0072,0.143748 -0.03125,0.3359375 l -0.945313,4.7226566 c -0.03204,0.151675 -0.05704,0.271849 -0.07617,0.355468 -0.01847,0.08073 -0.03651,0.138447 -0.03125,0.125 -0.02781,0.06684 -0.05919,0.113879 -0.09375,0.148438 -0.03905,0.03553 -0.07588,0.058 -0.105468,0.06836 -0.0024,8.43e-4 -0.126292,0.02149 -0.302735,0.02149 h -0.248047 a 0.24244584,0.24244584 0 0 0 -0.238281,0.193359 l -0.08789,0.435547 a 0.24244584,0.24244584 0 0 0 0.238281,0.291015 h 2.765625 a 0.24244584,0.24244584 0 0 0 0.238281,-0.193359 l 0.08789,-0.435547 a 0.24244584,0.24244584 0 0 0 -0.238281,-0.291015 h -0.185547 c -0.22872,0 -0.373481,-0.05035 -0.34961,-0.03516 -0.006,-0.0038 -0.01408,-0.01643 -0.02148,-0.06445 0.0014,0.0086 0.01426,-0.158422 0.06055,-0.396484 l 0.40625,-2.0253908 h 0.583984 L 22,13.259766 a 0.24244584,0.24244584 0 0 0 0.210938,0.123046 h 1.642578 a 0.24244584,0.24244584 0 0 0 0.238281,-0.193359 l 0.08789,-0.435547 A 0.24244584,0.24244584 0 0 0 23.941406,12.462891 H 23.8125 c -0.137497,0 -0.245471,-0.02266 -0.332031,-0.06055 -0.08938,-0.04086 -0.171736,-0.100292 -0.251953,-0.185547 -7.01e-4,-7.44e-4 -0.0013,-0.0012 -0.002,-0.002 -0.01039,-0.0138 -0.09119,-0.132049 -0.203124,-0.316406 a 0.24244584,0.24244584 0 0 0 0,-0.002 L 21.792969,9.90625 c 0.43221,-0.036143 0.829267,-0.1060745 1.154297,-0.2441406 0.418364,-0.1814144 0.771075,-0.4324655 1.044922,-0.7519532 a 0.24244584,0.24244584 0 0 0 0.002,-0.00195 c 0.273394,-0.3227569 0.453691,-0.696081 0.537109,-1.109375 a 0.24244584,0.24244584 0 0 0 0,-0.00195 c 0.08015,-0.4045557 0.042,-0.7869793 -0.125,-1.1152344 l -0.002,-0.00195 C 24.239932,6.3484737 23.954064,6.095635 23.582031,5.9335938 23.192847,5.7592716 22.651027,5.6894531 21.927734,5.6894531 Z m 1.960938,1.046875 h 1.671875 c 0.393672,0 0.665556,0.056895 0.791015,0.1230469 a 0.24244584,0.24244584 0 0 0 0.0039,0.00195 c 0.141757,0.072167 0.227274,0.1655161 0.287109,0.3164063 a 0.24244584,0.24244584 0 0 0 0.002,0.00391 c 0.05825,0.1383544 0.0734,0.3313797 0.02148,0.5878906 -0.06131,0.3034627 -0.180725,0.5372702 -0.357421,0.7226563 -0.179983,0.1888345 -0.39448,0.3165023 -0.66211,0.3886719 a 0.24244584,0.24244584 0 0 0 -0.0039,0.00195 c -0.168658,0.048188 -0.520262,0.082031 -1.013672,0.082031 h -1.185547 z"
       id="text825" />
    <path
       transform="matrix(1.0000072,0,0,0.99999281,0,0.50005098)"
       style="font-style:normal;font-variant:normal;font-weight:normal;font-stretch:normal;font-size:10.58325672px;line-height:1.25;font-family:'Bookman Old Style';-inkscape-font-specification:'Bookman Old Style';letter-spacing:0px;word-spacing:0px;fill:#002255;fill-opacity:1;stroke:none;stroke-width:0.26458141"
       d="m 24.951172,9.3125 a 0.20968288,0.20968288 0 0 0 -0.183594,0.1679688 l -0.08789,0.4394531 a 0.20968288,0.20968288 0 0 0 0.205078,0.2500001 h 0.171875 c 0.237482,0 0.399261,0.0385 0.392578,0.03516 a 0.20968288,0.20968288 0 0 0 0.0098,0.0039 c 0.02878,0.01251 0.02253,0.0073 0.0293,0.0332 a 0.20968288,0.20968288 0 0 0 0,0.002 c -0.0028,-0.01022 0.0056,0.140786 -0.03711,0.357421 l -0.988281,4.931641 c -0.04578,0.221192 -0.105074,0.369249 -0.128907,0.404297 -0.03409,0.05114 -0.07304,0.0832 -0.130859,0.109375 -0.03687,0.01435 -0.187531,0.04102 -0.412109,0.04102 h -0.171875 a 0.20968288,0.20968288 0 0 0 -0.205079,0.167968 l -0.08789,0.433594 a 0.20968288,0.20968288 0 0 0 0.205078,0.25 h 2.791016 a 0.20968288,0.20968288 0 0 0 0.205078,-0.167969 l 0.08789,-0.433593 a 0.20968288,0.20968288 0 0 0 -0.205078,-0.25 h -0.248047 c -0.206107,0 -0.339965,-0.0416 -0.320312,-0.0293 -0.0081,-0.0053 -0.0208,-0.01426 -0.0332,-0.07422 a 0.20968288,0.20968288 0 0 0 -0.002,-0.0059 c 0.0041,0.01724 -0.0025,-0.03634 0.0059,-0.113282 0.0083,-0.07694 0.02594,-0.184372 0.05273,-0.318359 l 0.339844,-1.681641 h 1.146484 c 0.764981,0 1.348134,-0.07089 1.771485,-0.240234 a 0.20968288,0.20968288 0 0 0 0,-0.002 c 0.417128,-0.169107 0.794372,-0.452449 1.128906,-0.837891 0.288666,-0.330346 0.48121,-0.726556 0.570313,-1.175781 0.103526,-0.525031 0.04838,-0.992416 -0.189454,-1.363281 C 30.404793,9.8905378 30.067898,9.6344148 29.648438,9.4902344 29.282908,9.3588079 28.694041,9.3125 27.820312,9.3125 h -2.847656 a 0.20968288,0.20968288 0 0 0 -0.02148,0 z m 1.966797,0.982422 h 0.732422 c 0.591587,0 0.989741,0.03827 1.130859,0.08008 0.234085,0.07225 0.380816,0.194088 0.480469,0.390625 a 0.20968288,0.20968288 0 0 0 0.002,0 c 0.09666,0.187954 0.122809,0.436732 0.05664,0.767578 -0.06312,0.301701 -0.180344,0.556135 -0.355468,0.777344 -0.177964,0.221674 -0.371328,0.368258 -0.582032,0.453125 a 0.20968288,0.20968288 0 0 0 -0.002,0.002 c -0.192006,0.07842 -0.579439,0.132812 -1.128906,0.132813 h -0.855469 z"
       id="text830" />
    <path
       style="font-style:normal;font-variant:normal;font-weight:normal;font-stretch:normal;font-size:10.58325672px;line-height:1.25;font-family:'Bookman Old Style';-inkscape-font-specification:'Bookman Old Style';letter-spacing:0px;word-spacing:0px;fill:#002255;fill-opacity:1;stroke:none;stroke-width:0.26458141"
       d="m 33.105114,13.595441 c -0.503574,0 -0.990438,0.100401 -1.453135,0.30078 -0.458773,0.198677 -0.829201,0.451381 -1.105477,0.761712 -0.269119,0.302756 -0.446415,0.64227 -0.519535,1.011712 -0.0955,0.469877 -0.01257,0.916751 0.250002,1.289054 0.274956,0.389857 0.775429,0.669502 1.480479,0.886711 a 0.20983971,0.20983669 0 0 0 0.002,0 l 1.216806,0.371092 c 0.535447,0.167325 0.877359,0.353581 1.013679,0.499996 0.140683,0.151103 0.186307,0.318427 0.13086,0.583981 a 0.20983971,0.20983669 0 0 0 -0.002,0.0039 c -0.05378,0.280224 -0.222623,0.526349 -0.552738,0.755853 -0.39985,0.278291 -0.818104,0.41406 -1.271494,0.41406 -0.331954,0 -0.638814,-0.07754 -0.929694,-0.230467 h -0.002 c -0.287855,-0.155065 -0.533096,-0.382284 -0.74024,-0.691401 -0.204326,-0.304915 -0.344531,-0.681082 -0.419925,-1.136711 a 0.20983971,0.20983669 0 0 0 -0.248048,-0.169921 l -0.501957,0.09766 a 0.20983971,0.20983669 0 0 0 -0.16797,0.20117 l -0.03711,2.587873 a 0.20983971,0.20983669 0 0 0 0.208987,0.212888 h 0.363283 a 0.20983971,0.20983669 0 0 0 0.183596,-0.10742 l 0.255861,-0.464841 c 0.258446,0.21999 0.517245,0.402384 0.779302,0.507809 a 0.20983971,0.20983669 0 0 0 0.002,0 c 0.32989,0.12892 0.710656,0.189451 1.140633,0.189451 0.833332,0 1.573082,-0.225814 2.195328,-0.679682 0.619794,-0.453059 1.009605,-1.003167 1.134774,-1.632801 0.05662,-0.283102 0.05788,-0.555586 -0.0059,-0.81054 -0.06263,-0.254443 -0.180041,-0.475956 -0.349612,-0.654293 -0.17052,-0.182698 -0.408811,-0.341359 -0.712895,-0.486324 h -0.002 C 34.151366,17.067193 33.925432,16.969809 33.751603,16.91573 l -1.271494,-0.398434 c -0.396191,-0.124228 -0.669033,-0.243194 -0.798833,-0.33203 l -0.002,-0.002 c -0.139675,-0.0995 -0.223977,-0.202476 -0.271487,-0.312498 -0.04545,-0.112989 -0.05539,-0.221127 -0.0293,-0.343747 a 0.20983971,0.20983669 0 0 0 0,-0.0039 c 0.02593,-0.134859 0.09874,-0.275079 0.234376,-0.425778 0.130082,-0.144535 0.309913,-0.26778 0.548832,-0.365232 0.239237,-0.09942 0.496009,-0.150389 0.773443,-0.150389 0.461409,0 0.830763,0.132758 1.14454,0.400387 a 0.20983971,0.20983669 0 0 0 0.0039,0.002 c 0.398895,0.329241 0.681428,0.777218 0.847662,1.367178 a 0.20983971,0.20983669 0 0 0 0.259768,0.14453 l 0.505863,-0.14453 a 0.20983971,0.20983669 0 0 0 0.150392,-0.210936 l -0.109376,-2.220688 a 0.20983971,0.20983669 0 0 0 -0.208987,-0.199217 h -0.371096 a 0.20983971,0.20983669 0 0 0 -0.177736,0.0957 l -0.203126,0.32031 c -0.15289,-0.118768 -0.301965,-0.244064 -0.484378,-0.318357 -0.364538,-0.148789 -0.763647,-0.222655 -1.187509,-0.222655 z"
       id="text835"
       inkscape:connector-curvature="0" />
    <text
       xml:space="preserve"
       style="font-style:normal;font-weight:normal;font-size:10.58333302px;line-height:1.25;font-family:'Bookman Old Style';letter-spacing:0px;word-spacing:0px;fill:#000000;fill-opacity:1;stroke:none;stroke-width:0.26458332;-inkscape-font-specification:'Bookman Old Style';font-stretch:normal;font-variant:normal;"
       x="18.221487"
       y="17.64715"
       id="text33"><tspan
         sodipodi:role="line"
         id="tspan31"
         x="18.221487"
         y="27.180134"
         style="stroke-width:0.26458332;-inkscape-font-specification:'Bookman Old Style';font-family:'Bookman Old Style';font-weight:normal;font-style:normal;font-stretch:normal;font-variant:normal;" /></text>
    <path
       transform="translate(-0.32942779)"
       style="font-style:normal;font-variant:normal;font-weight:normal;font-stretch:normal;font-size:3.52777767px;line-height:1.25;font-family:'Bookman Old Style';-inkscape-font-specification:'Bookman Old Style';letter-spacing:0px;word-spacing:0px;fill:#002255;fill-opacity:1;stroke:none;stroke-width:0.26458332"
       d="m 17.591797,18.253906 a 0.17199902,0.17199902 0 0 0 -0.150391,0.138672 l -0.03516,0.175781 a 0.17199902,0.17199902 0 0 0 0.167969,0.205079 h 0.07422 c 0.06901,0 0.0754,0.0054 0.07812,0.002 -0.0049,0.03067 -0.01203,0.07515 -0.02344,0.130859 a 0.17199902,0.17199902 0 0 0 0,0.002 l -0.367187,1.828125 c -0.02024,0.102484 -0.04819,0.17112 -0.05469,0.181641 -0.01537,0.02488 -0.02347,0.02932 -0.03125,0.0332 0.01374,-0.0069 -0.0432,0.01172 -0.130859,0.01172 h -0.05078 a 0.17199902,0.17199902 0 0 0 -0.167968,0.138671 l -0.03516,0.173829 a 0.17199902,0.17199902 0 0 0 0.167969,0.205078 h 0.978516 a 0.17199902,0.17199902 0 0 0 0.167969,-0.138672 l 0.03516,-0.173828 a 0.17199902,0.17199902 0 0 0 -0.166016,-0.205078 c -0.09335,-0.0012 -0.150266,-0.01171 -0.148437,-0.0098 0.0021,0.0097 0.0043,-0.05089 0.02344,-0.150391 l 0.300781,-1.498046 0.845703,2.068359 a 0.17199902,0.17199902 0 0 0 0.160157,0.107422 h 0.25 a 0.17199902,0.17199902 0 0 0 0.167969,-0.138672 l 0.472656,-2.367188 c 0.01502,-0.07743 0.03832,-0.131872 0.05469,-0.158203 0.01734,-0.02789 0.02756,-0.03318 0.03711,-0.03711 -0.01853,0.0077 0.03361,-0.0059 0.111328,-0.0059 H 20.375 a 0.17199902,0.17199902 0 0 0 0.167969,-0.138672 l 0.03516,-0.175782 a 0.17199902,0.17199902 0 0 0 -0.167969,-0.205078 h -0.964844 a 0.17199902,0.17199902 0 0 0 -0.167968,0.138672 l -0.03516,0.175781 a 0.17199902,0.17199902 0 0 0 0.167968,0.205079 h 0.07422 c 0.05275,0 0.07131,0.0099 0.06641,0.0059 -0.0029,-0.0079 0.0011,0.04424 -0.01563,0.128906 l -0.216797,1.083985 -0.664062,-1.63086 a 0.17199902,0.17199902 0 0 0 -0.160156,-0.107422 h -0.884766 a 0.17199902,0.17199902 0 0 0 -0.01758,0 z m 3.154297,0 a 0.17199902,0.17199902 0 0 0 -0.150391,0.138672 l -0.03516,0.175781 a 0.17199902,0.17199902 0 0 0 0.167969,0.205079 c 0.06864,0 0.121179,0.002 0.15625,0.0039 -0.0017,0.0066 -0.0013,0.0027 -0.01172,0.05469 l -0.396485,1.984375 c -0.01613,0.08313 -0.04591,0.138963 -0.0293,0.115235 -0.01563,0.02266 -0.02482,0.02722 -0.0293,0.0293 a 0.17199902,0.17199902 0 0 0 -0.002,0 c 0.0267,-0.01265 0.01466,-0.004 -0.0078,-0.002 -0.02247,0.0021 -0.05836,0.0039 -0.103515,0.0039 h -0.08203 a 0.17199902,0.17199902 0 0 0 -0.167968,0.138671 l -0.03516,0.173829 a 0.17199902,0.17199902 0 0 0 0.167969,0.205078 h 2.433594 a 0.17199902,0.17199902 0 0 0 0.15039,-0.08789 l 0.501954,-0.902344 a 0.17199902,0.17199902 0 0 0 -0.08984,-0.24414 l -0.173828,-0.06641 a 0.17199902,0.17199902 0 0 0 -0.205078,0.06836 c -0.103491,0.16244 -0.201741,0.283759 -0.28711,0.363281 a 0.17199902,0.17199902 0 0 0 -0.002,0 c -0.112028,0.105939 -0.229179,0.180898 -0.355469,0.230469 -0.118655,0.04658 -0.292643,0.07617 -0.519531,0.07617 h -0.431641 c -0.0079,0 -0.01037,6.7e-5 -0.01758,0 0.0024,-0.01311 0.0028,-0.01977 0.0059,-0.03516 l 0.160156,-0.798828 h 0.207031 c 0.101353,0 0.171286,0.01282 0.167969,0.01172 a 0.17199902,0.17199902 0 0 0 0.002,0 c 0.01024,0.0033 0.0153,0.0042 0.02734,0.01953 a 0.17199902,0.17199902 0 0 0 0.0039,0.0059 c 0.01359,0.01595 0.01684,0.02551 0.01758,0.03125 a 0.17199902,0.17199902 0 0 0 0,0.0059 c -7.68e-4,-0.0048 1.83e-4,0.05963 -0.01758,0.148438 l -0.02148,0.109375 a 0.17199902,0.17199902 0 0 0 0.167968,0.205078 h 0.201172 a 0.17199902,0.17199902 0 0 0 0.167969,-0.138672 l 0.255859,-1.265625 a 0.17199902,0.17199902 0 0 0 -0.167968,-0.205078 h -0.203125 a 0.17199902,0.17199902 0 0 0 -0.167969,0.136719 l -0.0098,0.04687 a 0.17199902,0.17199902 0 0 0 0,0.002 c -0.02149,0.10999 -0.05297,0.1866 -0.06055,0.199218 -0.02304,0.03867 -0.05328,0.06948 -0.107422,0.101563 -0.03535,0.0203 -0.107076,0.04102 -0.214843,0.04102 h -0.138672 l 0.142578,-0.71289 h 0.558594 c 0.194734,0 0.329797,0.01213 0.371093,0.02148 0.04713,0.01067 0.09123,0.03202 0.138672,0.06836 a 0.17199902,0.17199902 0 0 0 0.002,0 c 0.04816,0.03612 0.08312,0.07819 0.109374,0.126953 a 0.17199902,0.17199902 0 0 0 0.002,0.0039 c 0.02425,0.04265 0.05158,0.120013 0.07031,0.232422 a 0.17199902,0.17199902 0 0 0 0.226563,0.134765 l 0.197265,-0.06836 a 0.17199902,0.17199902 0 0 0 0.113282,-0.189453 l -0.121094,-0.757812 a 0.17199902,0.17199902 0 0 0 -0.169922,-0.144532 h -2.34375 a 0.17199902,0.17199902 0 0 0 -0.01758,0 z m 2.853515,0 a 0.17199902,0.17199902 0 0 0 -0.15039,0.138672 l -0.03516,0.175781 a 0.17199902,0.17199902 0 0 0 0.167969,0.205079 c 0.05147,0 0.0856,0.007 0.08203,0.0059 a 0.17199902,0.17199902 0 0 0 0.0098,0.002 c 0.01151,0.003 0.0098,0.0056 0.0078,0.0039 -0.0016,-0.0014 0.0012,-2.21e-4 0.0078,0.01367 -0.0059,-0.01234 0.01027,0.03631 0.02539,0.109375 l 0.482422,2.433594 a 0.17199902,0.17199902 0 0 0 0.167968,0.138672 h 0.292969 a 0.17199902,0.17199902 0 0 0 0.146485,-0.08398 l 1.46875,-2.435546 a 0.17199902,0.17199902 0 0 0 0.002,0 c 0.0481,-0.08101 0.08616,-0.132426 0.103515,-0.150391 0.01247,-0.01188 0.02523,-0.02211 0.04297,-0.0293 0.0013,-4.85e-4 0.04425,-0.009 0.111328,-0.0078 a 0.17199902,0.17199902 0 0 0 0.171875,-0.138672 l 0.03516,-0.175782 a 0.17199902,0.17199902 0 0 0 -0.167968,-0.205078 h -0.894532 a 0.17199902,0.17199902 0 0 0 -0.167968,0.138672 l -0.03516,0.175781 a 0.17199902,0.17199902 0 0 0 0.167969,0.205079 h 0.06836 c -0.0037,0.0067 -0.0017,0.0046 -0.0059,0.01172 l -0.939453,1.597656 -0.279297,-1.541015 a 0.17199902,0.17199902 0 0 0 -0.002,-0.002 c -0.0082,-0.04158 -0.0052,-0.04999 -0.0059,-0.06445 0.0056,7.9e-4 0.02035,-0.002 0.07422,-0.002 h 0.08203 a 0.17199902,0.17199902 0 0 0 0.169922,-0.140626 l 0.0332,-0.175781 a 0.17199902,0.17199902 0 0 0 -0.169922,-0.203125 h -1.050781 a 0.17199902,0.17199902 0 0 0 -0.01758,0 z m 4.236329,0 a 0.17199902,0.17199902 0 0 0 -0.13086,0.08594 l -1.375,2.386718 c -0.06141,0.107132 -0.113387,0.177376 -0.125,0.189454 a 0.17199902,0.17199902 0 0 0 -0.002,0 c -0.01999,0.02082 -0.03544,0.03167 -0.04687,0.03711 1.01e-4,-4.1e-5 -0.002,3.3e-5 -0.002,0 0.0039,-0.0019 -0.03976,0.0098 -0.109375,0.0098 a 0.17199902,0.17199902 0 0 0 -0.167969,0.138671 l -0.03516,0.173829 a 0.17199902,0.17199902 0 0 0 0.167969,0.205078 h 0.863281 a 0.17199902,0.17199902 0 0 0 0.167969,-0.138672 l 0.03516,-0.173828 a 0.17199902,0.17199902 0 0 0 -0.158203,-0.205078 c -0.01989,-0.0012 -0.04446,-0.0017 -0.06836,-0.002 0.0039,-0.0077 0.0013,-0.0034 0.0059,-0.01172 l 0.298828,-0.53711 h 0.792969 l 0.05859,0.410157 a 0.17199902,0.17199902 0 0 0 0,0.002 c 0.008,0.05462 0.01311,0.09743 0.01563,0.126953 0.001,0.01186 0.0021,0.0048 0.002,0.01172 0.03427,-0.02015 0.0089,-0.0039 -0.04492,-0.0039 -0.03586,0 -0.0728,6.96e-4 -0.111328,0.0039 a 0.17199902,0.17199902 0 0 0 -0.154297,0.138671 l -0.03516,0.173829 a 0.17199902,0.17199902 0 0 0 0.167969,0.205078 h 1.027344 a 0.17199902,0.17199902 0 0 0 0.167969,-0.138672 l 0.03516,-0.173828 a 0.17199902,0.17199902 0 0 0 -0.167969,-0.205078 h -0.04492 c -0.04647,0 -0.04906,-0.0078 -0.04492,-0.0039 0.01164,0.01203 -0.02209,-0.04372 -0.03906,-0.15039 a 0.17199902,0.17199902 0 0 0 0,-0.002 l -0.414063,-2.410157 a 0.17199902,0.17199902 0 0 0 -0.169922,-0.142578 h -0.341796 a 0.17199902,0.17199902 0 0 0 -0.01758,0 z m -0.06445,1.060547 0.08789,0.550781 h -0.396484 z"
       id="text37" />
  </g>
  <g
     inkscape:groupmode="layer"
     id="layer3"
     inkscape:label="Layer 3"
     style="display:inline"
     transform="translate(-16.520595,-5.6894118)" />
</svg>
